{
  "name"        : "dwh_backend",
  "script"      : "./build/server.js",
  "watch"       : true,
  "ignore"      : ["./node_modules"],
  "env"         : {
    "NODE_OPTIONS": "--max-old-space-size=2048"
  }
}
